…
  img_df_cluster <- img_df_cluster %>%
    mutate(
      u = img_PCA$x[,1],
      v = img_PCA$x[,2]
    )

  return(img_df_cluster)
}
```

``` r
img_quantize(hanok, 6) # 6개의 색으로 Clustering
```

    ## # A tibble: 498,200 x 11
    ##        x     y c.1.x c.2.x c.3.x label c.1.y c.2.y c.3.y     u     v
    ##    <int> <int> <dbl> <dbl> <dbl> <chr> <dbl> <dbl> <dbl> <dbl> <dbl>
    ##  1     1     1 0.898 0.910 0.929 1     0.907 0.898 0.886 -2.28 0.165
    ##  2     2     1 0.898 0.910 0.929 1     0.907 0.898 0.886 -2.28 0.165
    ##  3     3     1 0.898 0.910 0.929 1     0.907 0.898 0.886 -2.28 0.165
    ##  4     4     1 0.898 0.910 0.929 1     0.907 0.898 0.886 -2.28 0.165
    ##  5     5     1 0.898 0.910 0.929 1     0.907 0.898 0.886 -2.28 0.165
    ##  6     6     1 0.898 0.910 0.929 1     0.907 0.898 0.886 -2.28 0.165
    ##  7     7     1 0.898 0.910 0.929 1     0.907 0.898 0.886 -2.28 0.165
    ##  8     8     1 0.898 0.910 0.929 1     0.907 0.898 0.886 -2.28 0.165
    ##  9     9     1 0.898 0.910 0.929 1     0.907 0.898 0.886 -2.28 0.165
    ## 10    10     1 0.898 0.910 0.929 1     0.907 0.898 0.886 -2.28 0.165
    ## # ... with 498,190 more rows
…
